…
####Contains 5 sheets within the Excel document

## pH Data

####Inital look at data

```r
pH <- read_xlsx("Data/Copy of 20180413_DataSchool_Glycogen.xlsx", sheet = "pH")
pH
```

```
## # A tibble: 60 x 5
##    `Treatment group` Brand `pH M. semitendinosus` `pH M. longissimu~ X__1 
##                <dbl> <dbl>                  <dbl>              <dbl> <chr>
##  1                1.    1.                   5.34               5.26 <NA> 
##  2                1.    2.                   5.33               5.35 <NA> 
##  3                1.    5.                   5.42               5.31 <NA> 
##  4                1.    6.                   5.46               5.50 <NA> 
##  5                1.    7.                   5.43               5.36 <NA> 
##  6                1.    8.                   5.36               5.24 <NA> 
##  7                1.    9.                   5.36               5.26 <NA> 
##  8                1.   10.                   5.48               5.33 <NA> 
##  9                1.   11.                   5.32               5.22 <NA> 
## 10                1.   12.                   5.39               5.33 <NA> 
## # ... with 50 more rows
```
…
```
## # A tibble: 120 x 6
##    Treatment.Group ID    Feed  Stress Muscle.type         pH
##    <fct>           <fct> <fct> <fct>  <chr>            <dbl>
##  1 1               1     TRUE  FALSE  M.semitendinosus  5.34
##  2 1               2     TRUE  FALSE  M.semitendinosus  5.33
##  3 1               5     TRUE  FALSE  M.semitendinosus  5.42
##  4 1               6     TRUE  FALSE  M.semitendinosus  5.46
##  5 1               7     TRUE  FALSE  M.semitendinosus  5.43
##  6 1               8     TRUE  FALSE  M.semitendinosus  5.36
##  7 1               9     TRUE  FALSE  M.semitendinosus  5.36
##  8 1               10    TRUE  FALSE  M.semitendinosus  5.48
##  9 1               11    TRUE  FALSE  M.semitendinosus  5.32
## 10 1               12    TRUE  FALSE  M.semitendinosus  5.39
## # ... with 110 more rows
```
…
## Glycogen Data (Taken from M.semitendinosus Muscle)

####Inital look at data

```r
Glycogen <- read_xlsx("Data/Copy of 20180413_DataSchool_Glycogen.xlsx", sheet = "Glycogen")
Glycogen
```

```
## # A tibble: 31 x 10
##    `Treatment grou~ Brand `Glycogen mg/g ~ `Lactate mg/g` `Corrected glyc~
##    <chr>            <dbl>            <dbl>          <dbl>            <dbl>
##  1 1                   1.             9.44           2.47            11.9 
##  2 1                   2.             6.91           2.54             9.44
##  3 1                   5.             1.26           3.41             4.67
##  4 1                   6.             4.45           3.03             7.48
##  5 1                   7.             4.81           3.06             7.87
##  6 1                   8.             4.13           4.05             8.18
##  7 1                   9.             5.84           2.98             8.82
##  8 1                  10.             3.81           4.16             7.97
##  9 1                  11.             7.59           5.29            12.9 
## 10 1                  12.             8.14           3.21            11.3 
## # ... with 21 more rows, and 5 more variables: `Treatment group__1` <dbl>,
## #   Brand__1 <dbl>, `Glycogen mg/g tissue__1` <dbl>, `Lactate
## #   mg/g__1` <dbl>, `Corrected glycogen__1` <dbl>
```
…
```
## # A tibble: 180 x 6
##    Treatment.Group ID    Feed  Stress Measure              `mg/g`
##    <fct>           <fct> <lgl> <lgl>  <chr>                 <dbl>
##  1 1               1     TRUE  FALSE  Glycogen mg/g tissue   9.44
##  2 1               2     TRUE  FALSE  Glycogen mg/g tissue   6.91
##  3 1               5     TRUE  FALSE  Glycogen mg/g tissue   1.26
##  4 1               6     TRUE  FALSE  Glycogen mg/g tissue   4.45
##  5 1               7     TRUE  FALSE  Glycogen mg/g tissue   4.81
##  6 1               8     TRUE  FALSE  Glycogen mg/g tissue   4.13
##  7 1               9     TRUE  FALSE  Glycogen mg/g tissue   5.84
##  8 1               10    TRUE  FALSE  Glycogen mg/g tissue   3.81
##  9 1               11    TRUE  FALSE  Glycogen mg/g tissue   7.59
## 10 1               12    TRUE  FALSE  Glycogen mg/g tissue   8.14
## # ... with 170 more rows
```
…
```
## # A tibble: 33 x 4
##    ID    Treatment.Group Measure       `mg/g`
##    <fct> <fct>           <fct>          <dbl>
##  1 10    1               Glycogen mg/g  2.56 
##  2 11    1               Glycogen mg/g  1.18 
##  3 12    1               Glycogen mg/g  7.47 
##  4 13    1               Glycogen mg/g  3.66 
##  5 14    1               Glycogen mg/g  5.16 
##  6 24    2               Glycogen mg/g  8.10 
##  7 25    2               Glycogen mg/g  6.20 
##  8 26    2               Glycogen mg/g 11.2  
##  9 27    2               Glycogen mg/g  0.360
## 10 28    2               Glycogen mg/g  8.50 
## # ... with 23 more rows
```
…
#### Modelling Results
1. Stress caused a significant (P = 0.0046) increase in M.semimembranosus muscle glycogen levels.

## Weight Gain Data

####Inital look at data

```r
Weight_gain <- read_xlsx("Data/Copy of 20180413_DataSchool_Glycogen.xlsx", sheet = "Weight gain")
Weight_gain
```

```
## # A tibble: 61 x 9
##    `Treatment group` Brand `Week -1` `Week 0` `Week 1` `Week 2` `Week 3`
##                <dbl> <dbl>     <dbl>    <dbl>    <dbl>    <dbl>    <dbl>
##  1                1.    1.      45.5     46.0     45.5     46.0     48.4
##  2                1.    2.      42.0     40.5     42.5     41.0     44.4
##  3                1.    5.      44.5     45.5     47.5     43.5     47.4
##  4                1.    6.      46.0     46.0     42.0     39.0     37.6
##  5                1.    7.      42.0     42.5     44.0     41.5     46.4
##  6                1.    8.      39.0     41.0     41.0     38.5     41.2
##  7                1.    9.      40.0     41.5     39.0     38.0     43.6
##  8                1.   10.      42.5     43.0     40.5     39.5     44.2
##  9                1.   11.      44.0     41.5     42.5     40.0     45.6
## 10                1.   12.      41.0     42.0     42.5     40.0     43.8
## # ... with 51 more rows, and 2 more variables: `Week 4` <dbl>, X__1 <dbl>
```
…
```
## # A tibble: 360 x 6
##    Treatment.Group ID    Feed  Stress Week  Weight.kg
##    <fct>           <fct> <fct> <fct>  <fct>     <dbl>
##  1 1               1     TRUE  FALSE  -1         45.5
##  2 1               2     TRUE  FALSE  -1         42.0
##  3 1               5     TRUE  FALSE  -1         44.5
##  4 1               6     TRUE  FALSE  -1         46.0
##  5 1               7     TRUE  FALSE  -1         42.0
##  6 1               8     TRUE  FALSE  -1         39.0
##  7 1               9     TRUE  FALSE  -1         40.0
##  8 1               10    TRUE  FALSE  -1         42.5
##  9 1               11    TRUE  FALSE  -1         44.0
## 10 1               12    TRUE  FALSE  -1         41.0
## # ... with 350 more rows
```
…
## Peptide Matrix Data

####Data are the peak areas of identified peptides


```r
peptide <- read_xlsx("Data/Copy of Data Matrix_Peptide Peak Area.xlsx")
peptide
```

```
## # A tibble: 2,116 x 49
##    `Sample ID` `1`   `5`   `6`   `9`   `11`  `12`  `13`  `14`  `15`  `16` 
##    <chr>       <chr> <chr> <chr> <chr> <chr> <chr> <chr> <chr> <chr> <chr>
##  1 Group       1     1     1     1     1     1     1     1     1     1    
##  2 Nutrition:~ HN    HN    HN    HN    HN    HN    HN    HN    HN    HN   
##  3 tr|W5PFP1|~ 1887~ 8163~ 5242~ 2767~ 2077~ 9258~ 6390~ 1596~ 1373~ 2690~
##  4 tr|W5PFP1|~ 1409~ 6142~ 4180~ 1979~ 1422~ 7159~ 5216~ 1634~ 1162~ 2627~
##  5 tr|W5PFP1|~ 9676~ 4652~ 2383~ 1342~ 9833~ 5243~ 3804~ 1107~ 7213~ 1552~
##  6 tr|W5PFP1|~ 4624~ 2348~ 1215~ 7070~ 5093~ 2554~ 2000~ 5470~ 3708~ 77193
##  7 tr|W5PFP1|~ 6281~ 3683~ 2023~ 1061~ 7110~ 3819~ 2127~ 9957~ 5638~ 23527
##  8 tr|W5PFP1|~ 5230~ 2835~ 1546~ 8600~ 6105~ 3363~ 2567~ 7267~ 4698~ 1095~
##  9 tr|W5PFP1|~ 4234~ 13699 293.~ 1277~ 3179  3207~ 2783~ 518.~ 248.~ 1277~
## 10 tr|W5PFP1|~ 1969~ 2309~ 3979~ 1984~ 1471~ 1337~ 6507~ 1581~ 1296~ 1877~
## # ... with 2,106 more rows, and 38 more variables: `17` <chr>, `3` <chr>,
## #   `4` <chr>, `18` <chr>, `19` <chr>, `20` <chr>, `21` <chr>, `22` <chr>,
## #   `23` <chr>, `25` <chr>, `26` <chr>, `27` <chr>, `28` <chr>,
## #   `29` <chr>, `30` <chr>, `32` <chr>, `34` <chr>, `35` <chr>,
## #   `36` <chr>, `40` <chr>, `41` <chr>, `42` <chr>, `43` <chr>,
## #   `44` <chr>, `46` <chr>, `47` <chr>, `48` <chr>, `49` <chr>,
## #   `51` <chr>, `52` <chr>, `53` <chr>, `54` <chr>, `55` <chr>,
## #   `56` <chr>, `57` <chr>, `59` <chr>, `60` <chr>, `62` <chr>
```
…
